StartTime;LastResetTime;CurrentTime;ElapsedTime(P);ElapsedTime(C);TargetRate;CallRate(P);CallRate(C);IncomingCall(P);IncomingCall(C);OutgoingCall(P);OutgoingCall(C);TotalCallCreated;CurrentCall;SuccessfulCall(P);SuccessfulCall(C);FailedCall(P);FailedCall(C);FailedCannotSendMessage(P);FailedCannotSendMessage(C);FailedMaxUDPRetrans(P);FailedMaxUDPRetrans(C);FailedTcpConnect(P);FailedTcpConnect(C);FailedTcpClosed(P);FailedTcpClosed(C);FailedUnexpectedMessage(P);FailedUnexpectedMessage(C);FailedCallRejected(P);FailedCallRejected(C);FailedCmdNotSent(P);FailedCmdNotSent(C);FailedRegexpDoesntMatch(P);FailedRegexpDoesntMatch(C);FailedRegexpShouldntMatch(P);FailedRegexpShouldntMatch(C);FailedRegexpHdrNotFound(P);FailedRegexpHdrNotFound(C);FailedOutboundCongestion(P);FailedOutboundCongestion(C);FailedTimeoutOnRecv(P);FailedTimeoutOnRecv(C);FailedTimeoutOnSend(P);FailedTimeoutOnSend(C);OutOfCallMsgs(P);OutOfCallMsgs(C);DeadCallMsgs(P);DeadCallMsgs(C);Retransmissions(P);Retransmissions(C);AutoAnswered(P);AutoAnswered(C);Warnings(P);Warnings(C);FatalErrors(P);FatalErrors(C);WatchdogMajor(P);WatchdogMajor(C);WatchdogMinor(P);WatchdogMinor(C);CallLength(P);CallLength(C);CallLengthStDev(P);CallLengthStDev(C);CallLengthRepartition;<10;<30;<50;<100;<200;<400;<500;>=500;
2014-04-08	14:13:22:669	1396923202.669857;2014-04-08	14:13:22:669	1396923202.669857;2014-04-08	14:13:22:685	1396923202.685861;00:00:00;00:00:00;10;0;0;0;0;0;0;0;0;0;0;0;0;0;0;0;0;0;0;0;0;0;0;0;0;0;0;0;0;0;0;0;0;0;0;0;0;0;0;0;0;0;0;0;0;0;0;0;0;0;0;0;0;0;0;00:00:00:000;00:00:00:000;00:00:00:000;00:00:00:000;;0;0;0;0;0;0;0;0;
2014-04-08	14:13:22:669	1396923202.669857;2014-04-08	14:13:22:688	1396923202.688584;2014-04-08	14:13:52:849	1396923232.849551;00:00:30;00:00:30;10;9.98011;9.97382;0;0;301;301;301;0;301;301;0;0;0;0;0;0;0;0;0;0;0;0;0;0;0;0;0;0;0;0;0;0;0;0;0;0;0;0;0;0;0;0;0;0;0;0;0;0;0;0;0;0;0;0;00:00:00:002;00:00:00:002;00:00:00:000;00:00:00:000;;301;0;0;0;0;0;0;0;
2014-04-08	14:13:22:669	1396923202.669857;2014-04-08	14:13:52:850	1396923232.850591;2014-04-08	14:13:52:863	1396923232.863196;00:00:00;00:00:30;10;0;9.9692;0;0;0;301;301;0;0;301;0;0;0;0;0;0;0;0;0;0;0;0;0;0;0;0;0;0;0;0;0;0;0;0;0;0;0;0;0;0;0;0;0;0;0;0;0;0;0;0;0;0;0;0;00:00:00:000;00:00:00:002;00:00:00:000;00:00:00:000;;301;0;0;0;0;0;0;0;
