StartTime;LastResetTime;CurrentTime;ElapsedTime(P);ElapsedTime(C);TargetRate;CallRate(P);CallRate(C);IncomingCall(P);IncomingCall(C);OutgoingCall(P);OutgoingCall(C);TotalCallCreated;CurrentCall;SuccessfulCall(P);SuccessfulCall(C);FailedCall(P);FailedCall(C);FailedCannotSendMessage(P);FailedCannotSendMessage(C);FailedMaxUDPRetrans(P);FailedMaxUDPRetrans(C);FailedTcpConnect(P);FailedTcpConnect(C);FailedTcpClosed(P);FailedTcpClosed(C);FailedUnexpectedMessage(P);FailedUnexpectedMessage(C);FailedCallRejected(P);FailedCallRejected(C);FailedCmdNotSent(P);FailedCmdNotSent(C);FailedRegexpDoesntMatch(P);FailedRegexpDoesntMatch(C);FailedRegexpShouldntMatch(P);FailedRegexpShouldntMatch(C);FailedRegexpHdrNotFound(P);FailedRegexpHdrNotFound(C);FailedOutboundCongestion(P);FailedOutboundCongestion(C);FailedTimeoutOnRecv(P);FailedTimeoutOnRecv(C);FailedTimeoutOnSend(P);FailedTimeoutOnSend(C);OutOfCallMsgs(P);OutOfCallMsgs(C);DeadCallMsgs(P);DeadCallMsgs(C);Retransmissions(P);Retransmissions(C);AutoAnswered(P);AutoAnswered(C);Warnings(P);Warnings(C);FatalErrors(P);FatalErrors(C);WatchdogMajor(P);WatchdogMajor(C);WatchdogMinor(P);WatchdogMinor(C);CallLength(P);CallLength(C);CallLengthStDev(P);CallLengthStDev(C);CallLengthRepartition;<10;<30;<50;<100;<200;<400;<500;>=500;
2014-04-08	14:12:31:568	1396923151.568629;2014-04-08	14:12:31:568	1396923151.568629;2014-04-08	14:12:31:587	1396923151.587197;00:00:00;00:00:00;10;0;0;0;0;0;0;0;0;0;0;0;0;0;0;0;0;0;0;0;0;0;0;0;0;0;0;0;0;0;0;0;0;0;0;0;0;0;0;0;0;0;0;0;0;0;0;0;0;0;0;0;0;0;0;00:00:00:000;00:00:00:000;00:00:00:000;00:00:00:000;;0;0;0;0;0;0;0;0;
2014-04-08	14:12:31:568	1396923151.568629;2014-04-08	14:12:31:590	1396923151.590277;2014-04-08	14:12:40:110	1396923160.110897;00:00:08;00:00:08;10;9.97653;9.95083;0;0;85;85;85;0;85;85;0;0;0;0;0;0;0;0;0;0;0;0;0;0;0;0;0;0;0;0;0;0;0;0;0;0;0;0;0;0;0;0;0;0;0;0;0;0;0;0;0;0;0;0;00:00:00:003;00:00:00:003;00:00:00:006;00:00:00:006;;84;0;0;1;0;0;0;0;
2014-04-08	14:12:31:568	1396923151.568629;2014-04-08	14:12:40:112	1396923160.112145;2014-04-08	14:12:40:125	1396923160.125102;00:00:00;00:00:08;10;0;9.93455;0;0;0;85;85;0;0;85;0;0;0;0;0;0;0;0;0;0;0;0;0;0;0;0;0;0;0;0;0;0;0;0;0;0;0;0;0;0;0;0;0;0;0;0;0;0;0;0;0;0;0;0;00:00:00:000;00:00:00:003;00:00:00:000;00:00:00:006;;84;0;0;1;0;0;0;0;
