SEQUENTIAL
dans-diner.com;42295135;[authentication username=42295135 password=7EWnP4jNsQ5m];dans-diner.com;42295135;[authentication username=42295135 password=7EWnP4jNsQ5m];9;9 G722/8000/1;g722;;;;none;dans-diner.com;42295135;register;
dans-diner.com;42295135;[authentication username=42295135 password=7EWnP4jNsQ5m];dans-diner.com;42295135;[authentication username=42295135 password=7EWnP4jNsQ5m];9;9 G722/8000/1;g722;;;;none;dans-diner.com;42295135;;
dans-diner.com;42295135;[authentication username=42295135 password=7EWnP4jNsQ5m];dans-diner.com;42295135;[authentication username=42295135 password=7EWnP4jNsQ5m];9;9 G722/8000/1;g722;;;;none;dans-diner.com;42295135;;
dans-diner.com;42295135;[authentication username=42295135 password=7EWnP4jNsQ5m];dans-diner.com;42295135;[authentication username=42295135 password=7EWnP4jNsQ5m];9;9 G722/8000/1;g722;;;;none;dans-diner.com;42295135;;
dans-diner.com;42295135;[authentication username=42295135 password=7EWnP4jNsQ5m];dans-diner.com;42295135;[authentication username=42295135 password=7EWnP4jNsQ5m];9;9 G722/8000/1;g722;;;;none;dans-diner.com;42295135;;
dans-diner.com;42295135;[authentication username=42295135 password=7EWnP4jNsQ5m];dans-diner.com;42295135;[authentication username=42295135 password=7EWnP4jNsQ5m];9;9 G722/8000/1;g722;;;;none;dans-diner.com;42295135;;
dans-diner.com;42295135;[authentication username=42295135 password=7EWnP4jNsQ5m];dans-diner.com;42295135;[authentication username=42295135 password=7EWnP4jNsQ5m];9;9 G722/8000/1;g722;;;;none;dans-diner.com;42295135;;
dans-diner.com;42295135;[authentication username=42295135 password=7EWnP4jNsQ5m];dans-diner.com;42295135;[authentication username=42295135 password=7EWnP4jNsQ5m];9;9 G722/8000/1;g722;;;;none;dans-diner.com;42295135;;
dans-diner.com;42295135;[authentication username=42295135 password=7EWnP4jNsQ5m];dans-diner.com;42295135;[authentication username=42295135 password=7EWnP4jNsQ5m];9;9 G722/8000/1;g722;;;;none;dans-diner.com;42295135;;
