SEQUENTIAL
5957;asterisk;[authentication username=5957 password=Test5957];5996;
31;192.168.1.211;[authentication username=31 password=31];34;
32;192.168.1.211;[authentication username=32 password=32];35;

#fromUsername		field0 
#server address		field1
#auth tag		field2
#toUsername		field3