----------
cmd_NewDialog

<----------*
NOTIFY

---------->*
SIP/2.0 200 OK
[last_Via:]
[last_From:]
[last_To:];tag=1d503533
[last_Call-ID:]
[last_CSeq:]
User-Agent: SIP Test
Contact: <sip:[local_ip]:[local_port]>
Content-Length: 0



