StartTime;LastResetTime;CurrentTime;ElapsedTime(P);ElapsedTime(C);TargetRate;CallRate(P);CallRate(C);IncomingCall(P);IncomingCall(C);OutgoingCall(P);OutgoingCall(C);TotalCallCreated;CurrentCall;SuccessfulCall(P);SuccessfulCall(C);FailedCall(P);FailedCall(C);FailedCannotSendMessage(P);FailedCannotSendMessage(C);FailedMaxUDPRetrans(P);FailedMaxUDPRetrans(C);FailedTcpConnect(P);FailedTcpConnect(C);FailedTcpClosed(P);FailedTcpClosed(C);FailedUnexpectedMessage(P);FailedUnexpectedMessage(C);FailedCallRejected(P);FailedCallRejected(C);FailedCmdNotSent(P);FailedCmdNotSent(C);FailedRegexpDoesntMatch(P);FailedRegexpDoesntMatch(C);FailedRegexpShouldntMatch(P);FailedRegexpShouldntMatch(C);FailedRegexpHdrNotFound(P);FailedRegexpHdrNotFound(C);FailedOutboundCongestion(P);FailedOutboundCongestion(C);FailedTimeoutOnRecv(P);FailedTimeoutOnRecv(C);FailedTimeoutOnSend(P);FailedTimeoutOnSend(C);OutOfCallMsgs(P);OutOfCallMsgs(C);DeadCallMsgs(P);DeadCallMsgs(C);Retransmissions(P);Retransmissions(C);AutoAnswered(P);AutoAnswered(C);Warnings(P);Warnings(C);FatalErrors(P);FatalErrors(C);WatchdogMajor(P);WatchdogMajor(C);WatchdogMinor(P);WatchdogMinor(C);CallLength(P);CallLength(C);CallLengthStDev(P);CallLengthStDev(C);CallLengthRepartition;<10;<30;<50;<100;<200;<400;<500;>=500;
2014-04-06	16:59:45:343	1396760385.343602;2014-04-06	16:59:45:343	1396760385.343602;2014-04-06	16:59:45:362	1396760385.362064;00:00:00;00:00:00;10;0;0;0;0;0;0;0;0;0;0;0;0;0;0;0;0;0;0;0;0;0;0;0;0;0;0;0;0;0;0;0;0;0;0;0;0;0;0;0;0;0;0;0;0;0;0;0;0;0;0;0;0;0;0;00:00:00:000;00:00:00:000;00:00:00:000;00:00:00:000;;0;0;0;0;0;0;0;0;
2014-04-06	16:59:45:343	1396760385.343602;2014-04-06	16:59:45:364	1396760385.364815;2014-04-06	17:00:45:364	1396760445.364562;00:00:59;00:01:00;100;89.9682;89.9367;0;0;5398;5398;5398;0;5398;5398;0;0;0;0;0;0;0;0;0;0;0;0;0;0;0;0;0;0;0;0;0;0;0;0;0;0;0;0;0;0;0;0;0;0;0;0;0;0;0;0;0;0;0;0;00:00:00:002;00:00:00:002;00:00:00:002;00:00:00:002;;5382;15;0;0;1;0;0;0;
2014-04-06	16:59:45:343	1396760385.343602;2014-04-06	17:00:45:365	1396760445.365695;2014-04-06	17:00:45:423	1396760445.423650;00:00:00;00:01:00;100;0;89.8469;0;0;0;5398;5398;0;0;5398;0;0;0;0;0;0;0;0;0;0;0;0;0;0;0;0;0;0;0;0;0;0;0;0;0;0;0;0;0;0;0;0;0;0;0;0;0;0;0;0;0;0;0;0;00:00:00:000;00:00:00:002;00:00:00:000;00:00:00:002;;5382;15;0;0;1;0;0;0;
2014-04-06	16:59:45:343	1396760385.343602;2014-04-06	17:00:45:424	1396760445.424575;2014-04-06	17:00:45:438	1396760445.438436;00:00:00;00:01:00;100;0;89.8259;0;0;0;5398;5398;0;0;5398;0;0;0;0;0;0;0;0;0;0;0;0;0;0;0;0;0;0;0;0;0;0;0;0;0;0;0;0;0;0;0;0;0;0;0;0;0;0;0;0;0;0;0;0;00:00:00:000;00:00:00:002;00:00:00:000;00:00:00:002;;5382;15;0;0;1;0;0;0;
